what,kind,bundleId,bundleVersion,description,time
activated,workbench,org.eclipse.ui.workbench,3.6.2.M20110210-1200,"",1308315443504
deactivated,workbench,org.eclipse.ui.workbench,3.6.2.M20110210-1200,"",1308315504266
activated,workbench,org.eclipse.ui.workbench,3.6.2.M20110210-1200,"",1308315508104
activated,editor,org.eclipse.jdt.ui,3.6.2.r362_v20110203,"org.eclipse.jdt.ui.CompilationUnitEditor",1308315516886
activated,editor,org.eclipse.jdt.ui,3.6.2.r362_v20110203,"org.eclipse.jdt.ui.CompilationUnitEditor",1308315520974
activated,editor,org.eclipse.jdt.ui,3.6.2.r362_v20110203,"org.eclipse.jdt.ui.CompilationUnitEditor",1308315534234
activated,editor,org.eclipse.jdt.ui,3.6.2.r362_v20110203,"org.eclipse.jdt.ui.CompilationUnitEditor",1308315539896
deactivated,workbench,org.eclipse.ui.workbench,3.6.2.M20110210-1200,"",1308315596103
activated,workbench,org.eclipse.ui.workbench,3.6.2.M20110210-1200,"",1308315603061
activated,editor,org.eclipse.jdt.ui,3.6.2.r362_v20110203,"org.eclipse.jdt.ui.CompilationUnitEditor",1308315605697
activated,editor,org.eclipse.jdt.ui,3.6.2.r362_v20110203,"org.eclipse.jdt.ui.CompilationUnitEditor",1308315609254
activated,editor,org.eclipse.jdt.ui,3.6.2.r362_v20110203,"org.eclipse.jdt.ui.CompilationUnitEditor",1308315695896
activated,editor,org.eclipse.jdt.ui,3.6.2.r362_v20110203,"org.eclipse.jdt.ui.CompilationUnitEditor",1308315729218
deactivated,workbench,org.eclipse.ui.workbench,3.6.2.M20110210-1200,"",1308315748687
activated,workbench,org.eclipse.ui.workbench,3.6.2.M20110210-1200,"",1308315754646
deactivated,workbench,org.eclipse.ui.workbench,3.6.2.M20110210-1200,"",1308315767672
activated,workbench,org.eclipse.ui.workbench,3.6.2.M20110210-1200,"",1308315767859
deactivated,workbench,org.eclipse.ui.workbench,3.6.2.M20110210-1200,"",1308315807109
deactivated,workbench,org.eclipse.ui.workbench,3.6.2.M20110210-1200,"",1308315810634
deactivated,workbench,org.eclipse.ui.workbench,3.6.2.M20110210-1200,"",1308315870211
activated,workbench,org.eclipse.ui.workbench,3.6.2.M20110210-1200,"",1308315873222
deactivated,workbench,org.eclipse.ui.workbench,3.6.2.M20110210-1200,"",1308315964528
activated,workbench,org.eclipse.ui.workbench,3.6.2.M20110210-1200,"",1308315971127
activated,editor,org.eclipse.jdt.ui,3.6.2.r362_v20110203,"org.eclipse.jdt.ui.CompilationUnitEditor",1308315972594
activated,editor,org.eclipse.jdt.ui,3.6.2.r362_v20110203,"org.eclipse.jdt.ui.CompilationUnitEditor",1308316004667
activated,editor,org.eclipse.jdt.ui,3.6.2.r362_v20110203,"org.eclipse.jdt.ui.CompilationUnitEditor",1308316100716
activated,editor,org.eclipse.jdt.ui,3.6.2.r362_v20110203,"org.eclipse.jdt.ui.CompilationUnitEditor",1308316118391
executed,command,org.eclipse.ui.workbench.texteditor,3.6.1.r361_v20100714-0800,"org.eclipse.ui.edit.text.toggleOverwrite",1308316374231
executed,command,org.eclipse.ui.workbench.texteditor,3.6.1.r361_v20100714-0800,"org.eclipse.ui.edit.text.toggleOverwrite",1308316375152
deactivated,workbench,org.eclipse.ui.workbench,3.6.2.M20110210-1200,"",1308316413855
activated,workbench,org.eclipse.ui.workbench,3.6.2.M20110210-1200,"",1308316414058
deactivated,workbench,org.eclipse.ui.workbench,3.6.2.M20110210-1200,"",1308316418676
activated,workbench,org.eclipse.ui.workbench,3.6.2.M20110210-1200,"",1308316418863
deactivated,workbench,org.eclipse.ui.workbench,3.6.2.M20110210-1200,"",1308316425306
activated,workbench,org.eclipse.ui.workbench,3.6.2.M20110210-1200,"",1308316425540
deactivated,workbench,org.eclipse.ui.workbench,3.6.2.M20110210-1200,"",1308316479781
activated,workbench,org.eclipse.ui.workbench,3.6.2.M20110210-1200,"",1308316479968
deactivated,workbench,org.eclipse.ui.workbench,3.6.2.M20110210-1200,"",1308316485756
activated,workbench,org.eclipse.ui.workbench,3.6.2.M20110210-1200,"",1308316485943
deactivated,workbench,org.eclipse.ui.workbench,3.6.2.M20110210-1200,"",1308316493025
activated,workbench,org.eclipse.ui.workbench,3.6.2.M20110210-1200,"",1308316493228
activated,view,org.eclipse.jdt.ui,3.6.2.r362_v20110203,"org.eclipse.jdt.ui.PackageExplorer",1308316518484
opened,editor,org.eclipse.jdt.ui,3.6.2.r362_v20110203,"org.eclipse.jdt.ui.CompilationUnitEditor",1308316518718
activated,editor,org.eclipse.jdt.ui,3.6.2.r362_v20110203,"org.eclipse.jdt.ui.CompilationUnitEditor",1308316518828
activated,editor,org.eclipse.jdt.ui,3.6.2.r362_v20110203,"org.eclipse.jdt.ui.CompilationUnitEditor",1308316527813
activated,editor,org.eclipse.jdt.ui,3.6.2.r362_v20110203,"org.eclipse.jdt.ui.CompilationUnitEditor",1308316539560
activated,editor,org.eclipse.jdt.ui,3.6.2.r362_v20110203,"org.eclipse.jdt.ui.CompilationUnitEditor",1308316548795
deactivated,workbench,org.eclipse.ui.workbench,3.6.2.M20110210-1200,"",1308316553772
activated,workbench,org.eclipse.ui.workbench,3.6.2.M20110210-1200,"",1308316556439
activated,editor,org.eclipse.jdt.ui,3.6.2.r362_v20110203,"org.eclipse.jdt.ui.CompilationUnitEditor",1308316594690
activated,editor,org.eclipse.jdt.ui,3.6.2.r362_v20110203,"org.eclipse.jdt.ui.CompilationUnitEditor",1308316622100
activated,editor,org.eclipse.jdt.ui,3.6.2.r362_v20110203,"org.eclipse.jdt.ui.CompilationUnitEditor",1308316624752
deactivated,workbench,org.eclipse.ui.workbench,3.6.2.M20110210-1200,"",1308316648838
activated,workbench,org.eclipse.ui.workbench,3.6.2.M20110210-1200,"",1308316648994
deactivated,workbench,org.eclipse.ui.workbench,3.6.2.M20110210-1200,"",1308316652379
activated,workbench,org.eclipse.ui.workbench,3.6.2.M20110210-1200,"",1308316652566
deactivated,workbench,org.eclipse.ui.workbench,3.6.2.M20110210-1200,"",1308316659352
activated,workbench,org.eclipse.ui.workbench,3.6.2.M20110210-1200,"",1308316659540
activated,editor,org.eclipse.jdt.ui,3.6.2.r362_v20110203,"org.eclipse.jdt.ui.CompilationUnitEditor",1308316710864
activated,editor,org.eclipse.jdt.ui,3.6.2.r362_v20110203,"org.eclipse.jdt.ui.CompilationUnitEditor",1308316713406
activated,editor,org.eclipse.jdt.ui,3.6.2.r362_v20110203,"org.eclipse.jdt.ui.CompilationUnitEditor",1308316722158
deactivated,workbench,org.eclipse.ui.workbench,3.6.2.M20110210-1200,"",1308316788333
activated,workbench,org.eclipse.ui.workbench,3.6.2.M20110210-1200,"",1308316788536
deactivated,workbench,org.eclipse.ui.workbench,3.6.2.M20110210-1200,"",1308316792296
activated,workbench,org.eclipse.ui.workbench,3.6.2.M20110210-1200,"",1308316792498
deactivated,workbench,org.eclipse.ui.workbench,3.6.2.M20110210-1200,"",1308316800267
activated,workbench,org.eclipse.ui.workbench,3.6.2.M20110210-1200,"",1308316800470
executed,command,org.eclipse.ui,3.6.2.M20110203-1100,"org.eclipse.ui.file.save",1308316816273
executed,command,,,"AUTOGEN:::org.eclipse.jdt.debug.CompilationUnitEditor.BreakpointRulerActions/org.eclipse.jdt.debug.ui.actions.ManageBreakpointRulerAction",1308316863728
executed,command,,,"AUTOGEN:::org.eclipse.jdt.debug.CompilationUnitEditor.BreakpointRulerActions/org.eclipse.jdt.debug.ui.actions.ManageBreakpointRulerAction",1308316864664
executed,command,,,"AUTOGEN:::org.eclipse.jdt.internal.ui.CompilationUnitEditor.ruler.actions/org.eclipse.jdt.internal.ui.javaeditor.JavaSelectRulerAction",1308316865647
executed,command,,,"AUTOGEN:::org.eclipse.jdt.internal.ui.CompilationUnitEditor.ruler.actions/org.eclipse.jdt.internal.ui.javaeditor.JavaSelectRulerAction",1308316865647
executed,command,,,"AUTOGEN:::org.eclipse.jdt.internal.ui.CompilationUnitEditor.ruler.actions/org.eclipse.jdt.internal.ui.javaeditor.JavaSelectRulerAction",1308316865662
opened,view,org.eclipse.ui.ide,3.6.2.M20101201-0800,"org.eclipse.ui.views.ProblemView",1308316866302
deactivated,workbench,org.eclipse.ui.workbench,3.6.2.M20110210-1200,"",1308316915816
activated,workbench,org.eclipse.ui.workbench,3.6.2.M20110210-1200,"",1308316916019
deactivated,workbench,org.eclipse.ui.workbench,3.6.2.M20110210-1200,"",1308316953194
activated,workbench,org.eclipse.ui.workbench,3.6.2.M20110210-1200,"",1308316953381
executed,command,org.eclipse.ui,3.6.2.M20110203-1100,"org.eclipse.ui.edit.copy",1308316961322
executed,command,org.eclipse.ui,3.6.2.M20110203-1100,"org.eclipse.ui.edit.paste",1308316964816
executed,command,org.eclipse.ui,3.6.2.M20110203-1100,"org.eclipse.ui.file.save",1308316970900
deactivated,workbench,org.eclipse.ui.workbench,3.6.2.M20110210-1200,"",1308317040226
activated,workbench,org.eclipse.ui.workbench,3.6.2.M20110210-1200,"",1308320263903
deactivated,workbench,org.eclipse.ui.workbench,3.6.2.M20110210-1200,"",1308320303543
activated,workbench,org.eclipse.ui.workbench,3.6.2.M20110210-1200,"",1308320308535
activated,editor,org.eclipse.jdt.ui,3.6.2.r362_v20110203,"org.eclipse.jdt.ui.CompilationUnitEditor",1308320366910
activated,editor,org.eclipse.jdt.ui,3.6.2.r362_v20110203,"org.eclipse.jdt.ui.CompilationUnitEditor",1308320376582
deactivated,workbench,org.eclipse.ui.workbench,3.6.2.M20110210-1200,"",1308320385864
activated,workbench,org.eclipse.ui.workbench,3.6.2.M20110210-1200,"",1308320386644
deactivated,workbench,org.eclipse.ui.workbench,3.6.2.M20110210-1200,"",1308320392806
activated,workbench,org.eclipse.ui.workbench,3.6.2.M20110210-1200,"",1308320400372
activated,editor,org.eclipse.jdt.ui,3.6.2.r362_v20110203,"org.eclipse.jdt.ui.CompilationUnitEditor",1308320400543
deactivated,workbench,org.eclipse.ui.workbench,3.6.2.M20110210-1200,"",1308320433849
activated,workbench,org.eclipse.ui.workbench,3.6.2.M20110210-1200,"",1308320434068
executed,command,org.eclipse.ui,3.6.2.M20110203-1100,"org.eclipse.ui.file.save",1308320442086
activated,editor,org.eclipse.jdt.ui,3.6.2.r362_v20110203,"org.eclipse.jdt.ui.CompilationUnitEditor",1308320443646
deactivated,workbench,org.eclipse.ui.workbench,3.6.2.M20110210-1200,"",1308320447297
activated,workbench,org.eclipse.ui.workbench,3.6.2.M20110210-1200,"",1308320447468
deactivated,workbench,org.eclipse.ui.workbench,3.6.2.M20110210-1200,"",1308320451493
activated,workbench,org.eclipse.ui.workbench,3.6.2.M20110210-1200,"",1308320451665
executed,command,org.eclipse.ui,3.6.2.M20110203-1100,"org.eclipse.ui.file.save",1308320461149
deactivated,workbench,org.eclipse.ui.workbench,3.6.2.M20110210-1200,"",1308320647148
activated,workbench,org.eclipse.ui.workbench,3.6.2.M20110210-1200,"",1308320649473
deactivated,workbench,org.eclipse.ui.workbench,3.6.2.M20110210-1200,"",1308320687147
activated,workbench,org.eclipse.ui.workbench,3.6.2.M20110210-1200,"",1308320687318
deactivated,workbench,org.eclipse.ui.workbench,3.6.2.M20110210-1200,"",1308320693636
activated,workbench,org.eclipse.ui.workbench,3.6.2.M20110210-1200,"",1308320693839
deactivated,workbench,org.eclipse.ui.workbench,3.6.2.M20110210-1200,"",1308320699751
activated,workbench,org.eclipse.ui.workbench,3.6.2.M20110210-1200,"",1308320699923
deactivated,workbench,org.eclipse.ui.workbench,3.6.2.M20110210-1200,"",1308320739578
activated,workbench,org.eclipse.ui.workbench,3.6.2.M20110210-1200,"",1308320740764
deactivated,workbench,org.eclipse.ui.workbench,3.6.2.M20110210-1200,"",1308320745225
activated,workbench,org.eclipse.ui.workbench,3.6.2.M20110210-1200,"",1308320745428
deactivated,workbench,org.eclipse.ui.workbench,3.6.2.M20110210-1200,"",1308320748845
activated,workbench,org.eclipse.ui.workbench,3.6.2.M20110210-1200,"",1308320749032
deactivated,workbench,org.eclipse.ui.workbench,3.6.2.M20110210-1200,"",1308320765022
activated,workbench,org.eclipse.ui.workbench,3.6.2.M20110210-1200,"",1308320765193
deactivated,workbench,org.eclipse.ui.workbench,3.6.2.M20110210-1200,"",1308320779077
activated,workbench,org.eclipse.ui.workbench,3.6.2.M20110210-1200,"",1308320779280
deactivated,workbench,org.eclipse.ui.workbench,3.6.2.M20110210-1200,"",1308320788687
activated,workbench,org.eclipse.ui.workbench,3.6.2.M20110210-1200,"",1308320788890
executed,command,org.eclipse.ui,3.6.2.M20110203-1100,"org.eclipse.ui.edit.undo",1308320828935
deactivated,workbench,org.eclipse.ui.workbench,3.6.2.M20110210-1200,"",1308320869620
activated,workbench,org.eclipse.ui.workbench,3.6.2.M20110210-1200,"",1308320869823
executed,command,org.eclipse.ui,3.6.2.M20110203-1100,"org.eclipse.ui.file.save",1308320899712
deactivated,workbench,org.eclipse.ui.workbench,3.6.2.M20110210-1200,"",1308320948681
activated,workbench,org.eclipse.ui.workbench,3.6.2.M20110210-1200,"",1308320948899
deactivated,workbench,org.eclipse.ui.workbench,3.6.2.M20110210-1200,"",1308320951613
activated,workbench,org.eclipse.ui.workbench,3.6.2.M20110210-1200,"",1308320951816
deactivated,workbench,org.eclipse.ui.workbench,3.6.2.M20110210-1200,"",1308320957900
activated,workbench,org.eclipse.ui.workbench,3.6.2.M20110210-1200,"",1308320960365
deactivated,workbench,org.eclipse.ui.workbench,3.6.2.M20110210-1200,"",1308321018116
activated,workbench,org.eclipse.ui.workbench,3.6.2.M20110210-1200,"",1308321018288
deactivated,workbench,org.eclipse.ui.workbench,3.6.2.M20110210-1200,"",1308321028085
activated,workbench,org.eclipse.ui.workbench,3.6.2.M20110210-1200,"",1308321028303
deactivated,workbench,org.eclipse.ui.workbench,3.6.2.M20110210-1200,"",1308321031829
activated,workbench,org.eclipse.ui.workbench,3.6.2.M20110210-1200,"",1308321032031
deactivated,workbench,org.eclipse.ui.workbench,3.6.2.M20110210-1200,"",1308321096584
activated,workbench,org.eclipse.ui.workbench,3.6.2.M20110210-1200,"",1308321096787
deactivated,workbench,org.eclipse.ui.workbench,3.6.2.M20110210-1200,"",1308321146957
activated,workbench,org.eclipse.ui.workbench,3.6.2.M20110210-1200,"",1308321147175
executed,command,org.eclipse.ui,3.6.2.M20110203-1100,"org.eclipse.ui.file.save",1308321152604
executed,command,org.eclipse.ui,3.6.2.M20110203-1100,"org.eclipse.ui.file.save",1308321169436
deactivated,workbench,org.eclipse.ui.workbench,3.6.2.M20110210-1200,"",1308321171308
activated,workbench,org.eclipse.ui.workbench,3.6.2.M20110210-1200,"",1308321177767
activated,view,org.eclipse.ui.console,3.5.0.v20100526,"org.eclipse.ui.console.ConsoleView",1308321181292
deactivated,workbench,org.eclipse.ui.workbench,3.6.2.M20110210-1200,"",1308321208361
activated,workbench,org.eclipse.ui.workbench,3.6.2.M20110210-1200,"",1308321220280
activated,editor,org.eclipse.jdt.ui,3.6.2.r362_v20110203,"org.eclipse.jdt.ui.CompilationUnitEditor",1308321222698
activated,view,org.eclipse.ui.views,3.5.1.M20110202-0800,"org.eclipse.ui.views.ContentOutline",1308321255785
activated,editor,org.eclipse.jdt.ui,3.6.2.r362_v20110203,"org.eclipse.jdt.ui.CompilationUnitEditor",1308321257252
activated,editor,org.eclipse.jdt.ui,3.6.2.r362_v20110203,"org.eclipse.jdt.ui.CompilationUnitEditor",1308321275160
activated,editor,org.eclipse.jdt.ui,3.6.2.r362_v20110203,"org.eclipse.jdt.ui.CompilationUnitEditor",1308321352380
activated,view,org.eclipse.ui.console,3.5.0.v20100526,"org.eclipse.ui.console.ConsoleView",1308321369743
activated,editor,org.eclipse.jdt.ui,3.6.2.r362_v20110203,"org.eclipse.jdt.ui.CompilationUnitEditor",1308321374766
deactivated,workbench,org.eclipse.ui.workbench,3.6.2.M20110210-1200,"",1308321400054
activated,workbench,org.eclipse.ui.workbench,3.6.2.M20110210-1200,"",1308321400366
executed,command,org.eclipse.ui,3.6.2.M20110203-1100,"org.eclipse.ui.edit.copy",1308321469068
executed,command,org.eclipse.ui,3.6.2.M20110203-1100,"org.eclipse.ui.edit.paste",1308321470878
executed,command,org.eclipse.ui,3.6.2.M20110203-1100,"org.eclipse.ui.file.save",1308321511547
executed,command,org.eclipse.ui,3.6.2.M20110203-1100,"org.eclipse.ui.file.save",1308321577738
activated,view,org.eclipse.ui.console,3.5.0.v20100526,"org.eclipse.ui.console.ConsoleView",1308321588986
activated,editor,org.eclipse.jdt.ui,3.6.2.r362_v20110203,"org.eclipse.jdt.ui.CompilationUnitEditor",1308321591435
activated,editor,org.eclipse.jdt.ui,3.6.2.r362_v20110203,"org.eclipse.jdt.ui.CompilationUnitEditor",1308321593681
activated,view,org.eclipse.ui.console,3.5.0.v20100526,"org.eclipse.ui.console.ConsoleView",1308321595132
deactivated,workbench,org.eclipse.ui.workbench,3.6.2.M20110210-1200,"",1308321634990
activated,workbench,org.eclipse.ui.workbench,3.6.2.M20110210-1200,"",1308321757154
activated,editor,org.eclipse.jdt.ui,3.6.2.r362_v20110203,"org.eclipse.jdt.ui.CompilationUnitEditor",1308321768230
deactivated,workbench,org.eclipse.ui.workbench,3.6.2.M20110210-1200,"",1308321830396
activated,workbench,org.eclipse.ui.workbench,3.6.2.M20110210-1200,"",1308321832439
activated,view,org.eclipse.ui.console,3.5.0.v20100526,"org.eclipse.ui.console.ConsoleView",1308321855917
activated,editor,org.eclipse.jdt.ui,3.6.2.r362_v20110203,"org.eclipse.jdt.ui.CompilationUnitEditor",1308321892236
executed,command,org.eclipse.ui,3.6.2.M20110203-1100,"org.eclipse.ui.file.save",1308321969706
activated,view,org.eclipse.ui.console,3.5.0.v20100526,"org.eclipse.ui.console.ConsoleView",1308322014415
activated,editor,org.eclipse.jdt.ui,3.6.2.r362_v20110203,"org.eclipse.jdt.ui.CompilationUnitEditor",1308322028455
activated,editor,org.eclipse.jdt.ui,3.6.2.r362_v20110203,"org.eclipse.jdt.ui.CompilationUnitEditor",1308322154082
deactivated,workbench,org.eclipse.ui.workbench,3.6.2.M20110210-1200,"",1308322206124
activated,workbench,org.eclipse.ui.workbench,3.6.2.M20110210-1200,"",1308322206326
executed,command,org.eclipse.ui,3.6.2.M20110203-1100,"org.eclipse.ui.file.save",1308322224750
activated,view,org.eclipse.ui.console,3.5.0.v20100526,"org.eclipse.ui.console.ConsoleView",1308322228416
deactivated,workbench,org.eclipse.ui.workbench,3.6.2.M20110210-1200,"",1308322259414
activated,workbench,org.eclipse.ui.workbench,3.6.2.M20110210-1200,"",1308322616436
activated,editor,org.eclipse.jdt.ui,3.6.2.r362_v20110203,"org.eclipse.jdt.ui.CompilationUnitEditor",1308322621927
activated,editor,org.eclipse.jdt.ui,3.6.2.r362_v20110203,"org.eclipse.jdt.ui.CompilationUnitEditor",1308322624704
deactivated,workbench,org.eclipse.ui.workbench,3.6.2.M20110210-1200,"",1308323394470
activated,workbench,org.eclipse.ui.workbench,3.6.2.M20110210-1200,"",1308323648665
deactivated,workbench,org.eclipse.ui.workbench,3.6.2.M20110210-1200,"",1308323651645
activated,workbench,org.eclipse.ui.workbench,3.6.2.M20110210-1200,"",1308323768161
activated,editor,org.eclipse.jdt.ui,3.6.2.r362_v20110203,"org.eclipse.jdt.ui.CompilationUnitEditor",1308323770002
deactivated,workbench,org.eclipse.ui.workbench,3.6.2.M20110210-1200,"",1308323774089
activated,workbench,org.eclipse.ui.workbench,3.6.2.M20110210-1200,"",1308323782357
executed,command,org.eclipse.ui,3.6.2.M20110203-1100,"org.eclipse.ui.edit.paste",1308323785945
deactivated,workbench,org.eclipse.ui.workbench,3.6.2.M20110210-1200,"",1308323852822
activated,workbench,org.eclipse.ui.workbench,3.6.2.M20110210-1200,"",1308323865396
executed,command,org.eclipse.ui,3.6.2.M20110203-1100,"org.eclipse.ui.edit.undo",1308323889529
executed,command,org.eclipse.ui,3.6.2.M20110203-1100,"org.eclipse.ui.edit.undo",1308323889779
executed,command,org.eclipse.ui,3.6.2.M20110203-1100,"org.eclipse.ui.edit.undo",1308323889950
executed,command,org.eclipse.ui,3.6.2.M20110203-1100,"org.eclipse.ui.edit.undo",1308323890262
deactivated,workbench,org.eclipse.ui.workbench,3.6.2.M20110210-1200,"",1308323908623
activated,workbench,org.eclipse.ui.workbench,3.6.2.M20110210-1200,"",1308323914442
executed,command,org.eclipse.ui,3.6.2.M20110203-1100,"org.eclipse.ui.edit.paste",1308323917921
deactivated,workbench,org.eclipse.ui.workbench,3.6.2.M20110210-1200,"",1308323926704
activated,workbench,org.eclipse.ui.workbench,3.6.2.M20110210-1200,"",1308323983644
activated,view,org.eclipse.jdt.ui,3.6.2.r362_v20110203,"org.eclipse.jdt.ui.PackageExplorer",1308323983659
activated,editor,org.eclipse.jdt.ui,3.6.2.r362_v20110203,"org.eclipse.jdt.ui.CompilationUnitEditor",1308323983909
deactivated,workbench,org.eclipse.ui.workbench,3.6.2.M20110210-1200,"",1308323988324
activated,workbench,org.eclipse.ui.workbench,3.6.2.M20110210-1200,"",1308323994626
activated,editor,org.eclipse.jdt.ui,3.6.2.r362_v20110203,"org.eclipse.jdt.ui.CompilationUnitEditor",1308324013892
deactivated,workbench,org.eclipse.ui.workbench,3.6.2.M20110210-1200,"",1308324015593
activated,workbench,org.eclipse.ui.workbench,3.6.2.M20110210-1200,"",1308324017059
deactivated,workbench,org.eclipse.ui.workbench,3.6.2.M20110210-1200,"",1308324018822
activated,workbench,org.eclipse.ui.workbench,3.6.2.M20110210-1200,"",1308324143575
deactivated,workbench,org.eclipse.ui.workbench,3.6.2.M20110210-1200,"",1308324146118
deactivated,workbench,org.eclipse.ui.workbench,3.6.2.M20110210-1200,"",1308324148957
deactivated,workbench,org.eclipse.ui.workbench,3.6.2.M20110210-1200,"",1308324195117
activated,workbench,org.eclipse.ui.workbench,3.6.2.M20110210-1200,"",1308324195601
executed,command,org.eclipse.ui,3.6.2.M20110203-1100,"org.eclipse.ui.edit.copy",1308324206958
deactivated,workbench,org.eclipse.ui.workbench,3.6.2.M20110210-1200,"",1308324207691
activated,workbench,org.eclipse.ui.workbench,3.6.2.M20110210-1200,"",1308324489318
deactivated,workbench,org.eclipse.ui.workbench,3.6.2.M20110210-1200,"",1308324512999
activated,workbench,org.eclipse.ui.workbench,3.6.2.M20110210-1200,"",1308324854217
deactivated,workbench,org.eclipse.ui.workbench,3.6.2.M20110210-1200,"",1308324859163
activated,workbench,org.eclipse.ui.workbench,3.6.2.M20110210-1200,"",1308324860754
activated,view,org.eclipse.ui.console,3.5.0.v20100526,"org.eclipse.ui.console.ConsoleView",1308324863031
activated,editor,org.eclipse.jdt.ui,3.6.2.r362_v20110203,"org.eclipse.jdt.ui.CompilationUnitEditor",1308324903921
activated,editor,org.eclipse.jdt.ui,3.6.2.r362_v20110203,"org.eclipse.jdt.ui.CompilationUnitEditor",1308324996148
activated,view,org.eclipse.jdt.ui,3.6.2.r362_v20110203,"org.eclipse.jdt.ui.PackageExplorer",1308325046068
started,bundle,org.eclipse.jdt.junit.core,3.6.1.r361_v20100825-0800,"org.eclipse.jdt.junit.core",1308325050639
deactivated,workbench,org.eclipse.ui.workbench,3.6.2.M20110210-1200,"",1308325050748
started,bundle,org.eclipse.equinox.simpleconfigurator.manipulator,2.0.0.v20100503,"org.eclipse.equinox.simpleconfigurator.manipulator",1308325054461
started,bundle,org.eclipse.equinox.frameworkadmin,2.0.0.v20100503,"org.eclipse.equinox.frameworkadmin",1308325054461
activated,workbench,org.eclipse.ui.workbench,3.6.2.M20110210-1200,"",1308325054804
activated,editor,org.eclipse.jdt.ui,3.6.2.r362_v20110203,"org.eclipse.jdt.ui.CompilationUnitEditor",1308325054898
opened,editor,org.eclipse.jdt.ui,3.6.2.r362_v20110203,"org.eclipse.jdt.ui.CompilationUnitEditor",1308325055007
activated,editor,org.eclipse.jdt.ui,3.6.2.r362_v20110203,"org.eclipse.jdt.ui.CompilationUnitEditor",1308325055116
deactivated,workbench,org.eclipse.ui.workbench,3.6.2.M20110210-1200,"",1308325074039
activated,workbench,org.eclipse.ui.workbench,3.6.2.M20110210-1200,"",1308325127921
executed,command,org.eclipse.ui,3.6.2.M20110203-1100,"org.eclipse.ui.edit.paste",1308325129622
deactivated,workbench,org.eclipse.ui.workbench,3.6.2.M20110210-1200,"",1308325161430
activated,workbench,org.eclipse.ui.workbench,3.6.2.M20110210-1200,"",1308325172007
executed,command,org.eclipse.ui,3.6.2.M20110203-1100,"org.eclipse.ui.edit.paste",1308325174534
deactivated,workbench,org.eclipse.ui.workbench,3.6.2.M20110210-1200,"",1308325189807
activated,workbench,org.eclipse.ui.workbench,3.6.2.M20110210-1200,"",1308325193176
opened,view,org.eclipse.jdt.junit,3.6.1.r361_v20100825-0800,"org.eclipse.jdt.junit.ResultView",1308325194502
deactivated,workbench,org.eclipse.ui.workbench,3.6.2.M20110210-1200,"",1308325200789
activated,workbench,org.eclipse.ui.workbench,3.6.2.M20110210-1200,"",1308325200914
deactivated,workbench,org.eclipse.ui.workbench,3.6.2.M20110210-1200,"",1308325237355
activated,workbench,org.eclipse.ui.workbench,3.6.2.M20110210-1200,"",1308325240975
activated,editor,org.eclipse.jdt.ui,3.6.2.r362_v20110203,"org.eclipse.jdt.ui.CompilationUnitEditor",1308325241053
executed,command,org.eclipse.ui,3.6.2.M20110203-1100,"org.eclipse.ui.file.save",1308325267526
executed,command,org.eclipse.ui,3.6.2.M20110203-1100,"org.eclipse.ui.edit.cut",1308325368380
executed,command,org.eclipse.ui,3.6.2.M20110203-1100,"org.eclipse.ui.file.save",1308325382451
activated,view,org.eclipse.jdt.junit,3.6.1.r361_v20100825-0800,"org.eclipse.jdt.junit.ResultView",1308325384089
activated,editor,org.eclipse.jdt.ui,3.6.2.r362_v20110203,"org.eclipse.jdt.ui.CompilationUnitEditor",1308325384385
deactivated,workbench,org.eclipse.ui.workbench,3.6.2.M20110210-1200,"",1308325386351
activated,workbench,org.eclipse.ui.workbench,3.6.2.M20110210-1200,"",1308325387864
activated,editor,org.eclipse.jdt.ui,3.6.2.r362_v20110203,"org.eclipse.jdt.ui.CompilationUnitEditor",1308325407817
activated,editor,org.eclipse.jdt.ui,3.6.2.r362_v20110203,"org.eclipse.jdt.ui.CompilationUnitEditor",1308325408924
activated,editor,org.eclipse.jdt.ui,3.6.2.r362_v20110203,"org.eclipse.jdt.ui.CompilationUnitEditor",1308325411467
deactivated,workbench,org.eclipse.ui.workbench,3.6.2.M20110210-1200,"",1308325412606
activated,workbench,org.eclipse.ui.workbench,3.6.2.M20110210-1200,"",1308325417317
activated,view,org.eclipse.jdt.ui,3.6.2.r362_v20110203,"org.eclipse.jdt.ui.PackageExplorer",1308325420515
deactivated,workbench,org.eclipse.ui.workbench,3.6.2.M20110210-1200,"",1308325422247
activated,workbench,org.eclipse.ui.workbench,3.6.2.M20110210-1200,"",1308325424087
executed,command,org.eclipse.jdt.debug.ui,3.5.2.v20100928a_r362,"org.eclipse.jdt.debug.ui.localJavaShortcut.run",1308325435148
deactivated,workbench,org.eclipse.ui.workbench,3.6.2.M20110210-1200,"",1308325435195
activated,workbench,org.eclipse.ui.workbench,3.6.2.M20110210-1200,"",1308325442059
activated,editor,org.eclipse.jdt.ui,3.6.2.r362_v20110203,"org.eclipse.jdt.ui.CompilationUnitEditor",1308325449905
activated,view,org.eclipse.jdt.ui,3.6.2.r362_v20110203,"org.eclipse.jdt.ui.PackageExplorer",1308325463977
activated,editor,org.eclipse.jdt.ui,3.6.2.r362_v20110203,"org.eclipse.jdt.ui.CompilationUnitEditor",1308325468017
activated,view,org.eclipse.jdt.ui,3.6.2.r362_v20110203,"org.eclipse.jdt.ui.PackageExplorer",1308325473290
executed,command,org.eclipse.jdt.debug.ui,3.5.2.v20100928a_r362,"org.eclipse.jdt.debug.ui.localJavaShortcut.run",1308325476004
activated,view,org.eclipse.ui.console,3.5.0.v20100526,"org.eclipse.ui.console.ConsoleView",1308325479608
activated,editor,org.eclipse.jdt.ui,3.6.2.r362_v20110203,"org.eclipse.jdt.ui.CompilationUnitEditor",1308325510000
deactivated,workbench,org.eclipse.ui.workbench,3.6.2.M20110210-1200,"",1308325533540
