what,kind,bundleId,bundleVersion,description,time
activated,editor,org.eclipse.jdt.ui,3.6.2.r362_v20110203,"org.eclipse.jdt.ui.CompilationUnitEditor",1309021894847
deactivated,workbench,org.eclipse.ui.workbench,3.6.2.M20110210-1200,"",1309021897343
activated,workbench,org.eclipse.ui.workbench,3.6.2.M20110210-1200,"",1309021906344
executed,command,org.eclipse.ui,3.6.2.M20110203-1100,"org.eclipse.ui.edit.paste",1309021908918
executed,command,org.eclipse.ui,3.6.2.M20110203-1100,"org.eclipse.ui.edit.copy",1309021921835
executed,command,org.eclipse.ui,3.6.2.M20110203-1100,"org.eclipse.ui.edit.paste",1309021924830
deactivated,workbench,org.eclipse.ui.workbench,3.6.2.M20110210-1200,"",1309021931195
activated,workbench,org.eclipse.ui.workbench,3.6.2.M20110210-1200,"",1309021931413
deactivated,workbench,org.eclipse.ui.workbench,3.6.2.M20110210-1200,"",1309021947388
activated,workbench,org.eclipse.ui.workbench,3.6.2.M20110210-1200,"",1309021947591
executed,command,org.eclipse.ui,3.6.2.M20110203-1100,"org.eclipse.ui.file.save",1309021968697
deactivated,workbench,org.eclipse.ui.workbench,3.6.2.M20110210-1200,"",1309021976716
activated,workbench,org.eclipse.ui.workbench,3.6.2.M20110210-1200,"",1309021988650
activated,view,org.eclipse.jdt.ui,3.6.2.r362_v20110203,"org.eclipse.jdt.ui.PackageExplorer",1309021988665
opened,editor,org.eclipse.jdt.ui,3.6.2.r362_v20110203,"org.eclipse.jdt.ui.CompilationUnitEditor",1309021991146
activated,editor,org.eclipse.jdt.ui,3.6.2.r362_v20110203,"org.eclipse.jdt.ui.CompilationUnitEditor",1309021991271
activated,editor,org.eclipse.jdt.ui,3.6.2.r362_v20110203,"org.eclipse.jdt.ui.CompilationUnitEditor",1309021999398
deactivated,workbench,org.eclipse.ui.workbench,3.6.2.M20110210-1200,"",1309022004671
activated,workbench,org.eclipse.ui.workbench,3.6.2.M20110210-1200,"",1309022004858
activated,editor,org.eclipse.jdt.ui,3.6.2.r362_v20110203,"org.eclipse.jdt.ui.CompilationUnitEditor",1309022030442
deactivated,workbench,org.eclipse.ui.workbench,3.6.2.M20110210-1200,"",1309022047789
activated,workbench,org.eclipse.ui.workbench,3.6.2.M20110210-1200,"",1309022047977
executed,command,org.eclipse.ui,3.6.2.M20110203-1100,"org.eclipse.ui.file.save",1309022050410
activated,view,org.eclipse.jdt.ui,3.6.2.r362_v20110203,"org.eclipse.jdt.ui.PackageExplorer",1309022054482
activated,editor,org.eclipse.jdt.ui,3.6.2.r362_v20110203,"org.eclipse.jdt.ui.CompilationUnitEditor",1309022054716
executed,command,org.eclipse.ui,3.6.2.M20110203-1100,"org.eclipse.ui.file.save",1309022057539
deactivated,workbench,org.eclipse.ui.workbench,3.6.2.M20110210-1200,"",1309022059427
activated,workbench,org.eclipse.ui.workbench,3.6.2.M20110210-1200,"",1309022073295
activated,view,org.eclipse.jdt.ui,3.6.2.r362_v20110203,"org.eclipse.jdt.ui.PackageExplorer",1309022077008
deactivated,workbench,org.eclipse.ui.workbench,3.6.2.M20110210-1200,"",1309022083888
activated,workbench,org.eclipse.ui.workbench,3.6.2.M20110210-1200,"",1309022086836
opened,editor,org.eclipse.jdt.ui,3.6.2.r362_v20110203,"org.eclipse.jdt.ui.CompilationUnitEditor",1309022086930
activated,editor,org.eclipse.jdt.ui,3.6.2.r362_v20110203,"org.eclipse.jdt.ui.CompilationUnitEditor",1309022087023
deactivated,workbench,org.eclipse.ui.workbench,3.6.2.M20110210-1200,"",1309022089161
activated,workbench,org.eclipse.ui.workbench,3.6.2.M20110210-1200,"",1309022103544
executed,command,org.eclipse.ui,3.6.2.M20110203-1100,"org.eclipse.ui.edit.paste",1309022107023
deactivated,workbench,org.eclipse.ui.workbench,3.6.2.M20110210-1200,"",1309022127100
activated,workbench,org.eclipse.ui.workbench,3.6.2.M20110210-1200,"",1309022137521
activated,editor,org.eclipse.jdt.ui,3.6.2.r362_v20110203,"org.eclipse.jdt.ui.CompilationUnitEditor",1309022139502
activated,editor,org.eclipse.jdt.ui,3.6.2.r362_v20110203,"org.eclipse.jdt.ui.CompilationUnitEditor",1309022154899
deactivated,workbench,org.eclipse.ui.workbench,3.6.2.M20110210-1200,"",1309022165429
activated,workbench,org.eclipse.ui.workbench,3.6.2.M20110210-1200,"",1309022165601
executed,command,org.eclipse.ui,3.6.2.M20110203-1100,"org.eclipse.ui.file.save",1309022167691
deactivated,workbench,org.eclipse.ui.workbench,3.6.2.M20110210-1200,"",1309022181419
activated,workbench,org.eclipse.ui.workbench,3.6.2.M20110210-1200,"",1309022181591
deactivated,workbench,org.eclipse.ui.workbench,3.6.2.M20110210-1200,"",1309022189328
activated,workbench,org.eclipse.ui.workbench,3.6.2.M20110210-1200,"",1309022189515
executed,command,org.eclipse.ui,3.6.2.M20110203-1100,"org.eclipse.ui.file.save",1309022193462
deactivated,workbench,org.eclipse.ui.workbench,3.6.2.M20110210-1200,"",1309022207284
activated,workbench,org.eclipse.ui.workbench,3.6.2.M20110210-1200,"",1309022268561
activated,view,org.eclipse.jdt.ui,3.6.2.r362_v20110203,"org.eclipse.jdt.ui.PackageExplorer",1309022269980
deactivated,workbench,org.eclipse.ui.workbench,3.6.2.M20110210-1200,"",1309022273178
activated,workbench,org.eclipse.ui.workbench,3.6.2.M20110210-1200,"",1309022277687
opened,editor,org.eclipse.jdt.ui,3.6.2.r362_v20110203,"org.eclipse.jdt.ui.CompilationUnitEditor",1309022277796
activated,editor,org.eclipse.jdt.ui,3.6.2.r362_v20110203,"org.eclipse.jdt.ui.CompilationUnitEditor",1309022277889
activated,view,org.eclipse.jdt.ui,3.6.2.r362_v20110203,"org.eclipse.jdt.ui.PackageExplorer",1309022280370
activated,editor,org.eclipse.jdt.ui,3.6.2.r362_v20110203,"org.eclipse.jdt.ui.CompilationUnitEditor",1309022280885
executed,command,org.eclipse.ui,3.6.2.M20110203-1100,"org.eclipse.ui.edit.copy",1309022290775
activated,editor,org.eclipse.jdt.ui,3.6.2.r362_v20110203,"org.eclipse.jdt.ui.CompilationUnitEditor",1309022292366
executed,command,org.eclipse.ui,3.6.2.M20110203-1100,"org.eclipse.ui.edit.paste",1309022295190
executed,command,org.eclipse.ui,3.6.2.M20110203-1100,"org.eclipse.ui.file.save",1309022314206
deactivated,workbench,org.eclipse.ui.workbench,3.6.2.M20110210-1200,"",1309022315985
activated,workbench,org.eclipse.ui.workbench,3.6.2.M20110210-1200,"",1309022326749
executed,command,org.eclipse.ui,3.6.2.M20110203-1100,"org.eclipse.ui.file.save",1309022388774
deactivated,workbench,org.eclipse.ui.workbench,3.6.2.M20110210-1200,"",1309022396871
activated,workbench,org.eclipse.ui.workbench,3.6.2.M20110210-1200,"",1309022398774
executed,command,org.eclipse.ui,3.6.2.M20110203-1100,"org.eclipse.ui.file.save",1309022411784
deactivated,workbench,org.eclipse.ui.workbench,3.6.2.M20110210-1200,"",1309022416995
activated,workbench,org.eclipse.ui.workbench,3.6.2.M20110210-1200,"",1309022424249
executed,command,org.eclipse.ui,3.6.2.M20110203-1100,"org.eclipse.ui.edit.copy",1309022476555
executed,command,org.eclipse.ui,3.6.2.M20110203-1100,"org.eclipse.ui.edit.paste",1309022478240
executed,command,org.eclipse.ui,3.6.2.M20110203-1100,"org.eclipse.ui.file.save",1309022490673
deactivated,workbench,org.eclipse.ui.workbench,3.6.2.M20110210-1200,"",1309022500501
activated,workbench,org.eclipse.ui.workbench,3.6.2.M20110210-1200,"",1309022500689
deactivated,workbench,org.eclipse.ui.workbench,3.6.2.M20110210-1200,"",1309022503138
activated,workbench,org.eclipse.ui.workbench,3.6.2.M20110210-1200,"",1309022503325
deactivated,workbench,org.eclipse.ui.workbench,3.6.2.M20110210-1200,"",1309022529330
activated,workbench,org.eclipse.ui.workbench,3.6.2.M20110210-1200,"",1309022529533
executed,command,org.eclipse.ui,3.6.2.M20110203-1100,"org.eclipse.ui.file.save",1309022553510
activated,view,org.eclipse.jdt.ui,3.6.2.r362_v20110203,"org.eclipse.jdt.ui.PackageExplorer",1309022557145
activated,editor,org.eclipse.jdt.ui,3.6.2.r362_v20110203,"org.eclipse.jdt.ui.CompilationUnitEditor",1309022562465
executed,command,org.eclipse.ui,3.6.2.M20110203-1100,"org.eclipse.ui.file.save",1309022622712
executed,command,org.eclipse.ui,3.6.2.M20110203-1100,"org.eclipse.ui.edit.copy",1309022626721
activated,editor,org.eclipse.jdt.ui,3.6.2.r362_v20110203,"org.eclipse.jdt.ui.CompilationUnitEditor",1309022627797
executed,command,org.eclipse.ui,3.6.2.M20110203-1100,"org.eclipse.ui.edit.paste",1309022630995
executed,command,org.eclipse.ui,3.6.2.M20110203-1100,"org.eclipse.ui.file.save",1309022658186
executed,command,org.eclipse.ui,3.6.2.M20110203-1100,"org.eclipse.ui.file.save",1309022679449
deactivated,workbench,org.eclipse.ui.workbench,3.6.2.M20110210-1200,"",1309022687686
activated,workbench,org.eclipse.ui.workbench,3.6.2.M20110210-1200,"",1309022723550
deactivated,workbench,org.eclipse.ui.workbench,3.6.2.M20110210-1200,"",1309022729010
activated,workbench,org.eclipse.ui.workbench,3.6.2.M20110210-1200,"",1309022734673
activated,editor,org.eclipse.jdt.ui,3.6.2.r362_v20110203,"org.eclipse.jdt.ui.CompilationUnitEditor",1309022734735
deactivated,workbench,org.eclipse.ui.workbench,3.6.2.M20110210-1200,"",1309022749602
activated,workbench,org.eclipse.ui.workbench,3.6.2.M20110210-1200,"",1309022752363
deactivated,workbench,org.eclipse.ui.workbench,3.6.2.M20110210-1200,"",1309022761723
activated,workbench,org.eclipse.ui.workbench,3.6.2.M20110210-1200,"",1309022766138
deactivated,workbench,org.eclipse.ui.workbench,3.6.2.M20110210-1200,"",1309022777464
activated,workbench,org.eclipse.ui.workbench,3.6.2.M20110210-1200,"",1309022782752
deactivated,workbench,org.eclipse.ui.workbench,3.6.2.M20110210-1200,"",1309022852687
activated,workbench,org.eclipse.ui.workbench,3.6.2.M20110210-1200,"",1309022854777
executed,command,org.eclipse.ui,3.6.2.M20110203-1100,"org.eclipse.ui.edit.copy",1309022950405
executed,command,org.eclipse.ui,3.6.2.M20110203-1100,"org.eclipse.ui.edit.paste",1309022957363
executed,command,org.eclipse.ui,3.6.2.M20110203-1100,"org.eclipse.ui.edit.copy",1309023017485
executed,command,org.eclipse.ui,3.6.2.M20110203-1100,"org.eclipse.ui.edit.paste",1309023022758
deactivated,workbench,org.eclipse.ui.workbench,3.6.2.M20110210-1200,"",1309023076219
activated,workbench,org.eclipse.ui.workbench,3.6.2.M20110210-1200,"",1309023083973
deactivated,workbench,org.eclipse.ui.workbench,3.6.2.M20110210-1200,"",1309023127653
activated,workbench,org.eclipse.ui.workbench,3.6.2.M20110210-1200,"",1309023140211
deactivated,workbench,org.eclipse.ui.workbench,3.6.2.M20110210-1200,"",1309023213562
activated,workbench,org.eclipse.ui.workbench,3.6.2.M20110210-1200,"",1309023221346
deactivated,workbench,org.eclipse.ui.workbench,3.6.2.M20110210-1200,"",1309023222984
activated,workbench,org.eclipse.ui.workbench,3.6.2.M20110210-1200,"",1309023357706
activated,view,org.eclipse.jdt.ui,3.6.2.r362_v20110203,"org.eclipse.jdt.ui.PackageExplorer",1309023362682
deactivated,workbench,org.eclipse.ui.workbench,3.6.2.M20110210-1200,"",1309023368704
activated,workbench,org.eclipse.ui.workbench,3.6.2.M20110210-1200,"",1309023375958
opened,editor,org.eclipse.jdt.ui,3.6.2.r362_v20110203,"org.eclipse.jdt.ui.CompilationUnitEditor",1309023376083
activated,editor,org.eclipse.jdt.ui,3.6.2.r362_v20110203,"org.eclipse.jdt.ui.CompilationUnitEditor",1309023376192
activated,view,org.eclipse.jdt.ui,3.6.2.r362_v20110203,"org.eclipse.jdt.ui.PackageExplorer",1309023379671
activated,editor,org.eclipse.jdt.ui,3.6.2.r362_v20110203,"org.eclipse.jdt.ui.CompilationUnitEditor",1309023380607
executed,command,org.eclipse.ui,3.6.2.M20110203-1100,"org.eclipse.ui.edit.copy",1309023384616
activated,view,org.eclipse.jdt.ui,3.6.2.r362_v20110203,"org.eclipse.jdt.ui.PackageExplorer",1309023386145
activated,editor,org.eclipse.jdt.ui,3.6.2.r362_v20110203,"org.eclipse.jdt.ui.CompilationUnitEditor",1309023386379
executed,command,org.eclipse.ui,3.6.2.M20110203-1100,"org.eclipse.ui.edit.paste",1309023388375
executed,command,org.eclipse.ui,3.6.2.M20110203-1100,"org.eclipse.ui.file.save",1309023400294
deactivated,workbench,org.eclipse.ui.workbench,3.6.2.M20110210-1200,"",1309023456189
activated,workbench,org.eclipse.ui.workbench,3.6.2.M20110210-1200,"",1309023463583
activated,view,org.eclipse.jdt.ui,3.6.2.r362_v20110203,"org.eclipse.jdt.ui.PackageExplorer",1309023523815
activated,editor,org.eclipse.jdt.ui,3.6.2.r362_v20110203,"org.eclipse.jdt.ui.CompilationUnitEditor",1309023524049
activated,editor,org.eclipse.jdt.ui,3.6.2.r362_v20110203,"org.eclipse.jdt.ui.CompilationUnitEditor",1309023553065
deactivated,workbench,org.eclipse.ui.workbench,3.6.2.M20110210-1200,"",1309023563158
activated,workbench,org.eclipse.ui.workbench,3.6.2.M20110210-1200,"",1309023564780
executed,command,org.eclipse.ui,3.6.2.M20110203-1100,"org.eclipse.ui.file.save",1309023569632
executed,command,org.eclipse.ui,3.6.2.M20110203-1100,"org.eclipse.ui.file.save",1309023604498
deactivated,workbench,org.eclipse.ui.workbench,3.6.2.M20110210-1200,"",1309023616229
activated,workbench,org.eclipse.ui.workbench,3.6.2.M20110210-1200,"",1309023617337
opened,editor,org.eclipse.jdt.ui,3.6.2.r362_v20110203,"org.eclipse.jdt.ui.CompilationUnitEditor",1309023617446
activated,editor,org.eclipse.jdt.ui,3.6.2.r362_v20110203,"org.eclipse.jdt.ui.CompilationUnitEditor",1309023617555
activated,editor,org.eclipse.jdt.ui,3.6.2.r362_v20110203,"org.eclipse.jdt.ui.CompilationUnitEditor",1309023619599
closed,editor,org.eclipse.jdt.ui,3.6.2.r362_v20110203,"org.eclipse.jdt.ui.CompilationUnitEditor",1309023619614
deactivated,workbench,org.eclipse.ui.workbench,3.6.2.M20110210-1200,"",1309023621798
activated,workbench,org.eclipse.ui.workbench,3.6.2.M20110210-1200,"",1309023623280
opened,editor,org.eclipse.jdt.ui,3.6.2.r362_v20110203,"org.eclipse.jdt.ui.CompilationUnitEditor",1309023623358
activated,editor,org.eclipse.jdt.ui,3.6.2.r362_v20110203,"org.eclipse.jdt.ui.CompilationUnitEditor",1309023623452
activated,editor,org.eclipse.jdt.ui,3.6.2.r362_v20110203,"org.eclipse.jdt.ui.CompilationUnitEditor",1309023625355
closed,editor,org.eclipse.jdt.ui,3.6.2.r362_v20110203,"org.eclipse.jdt.ui.CompilationUnitEditor",1309023625355
deactivated,workbench,org.eclipse.ui.workbench,3.6.2.M20110210-1200,"",1309023626338
activated,workbench,org.eclipse.ui.workbench,3.6.2.M20110210-1200,"",1309023628069
opened,editor,org.eclipse.jdt.ui,3.6.2.r362_v20110203,"org.eclipse.jdt.ui.CompilationUnitEditor",1309023628132
activated,editor,org.eclipse.jdt.ui,3.6.2.r362_v20110203,"org.eclipse.jdt.ui.CompilationUnitEditor",1309023628241
activated,editor,org.eclipse.jdt.ui,3.6.2.r362_v20110203,"org.eclipse.jdt.ui.CompilationUnitEditor",1309023629395
closed,editor,org.eclipse.jdt.ui,3.6.2.r362_v20110203,"org.eclipse.jdt.ui.CompilationUnitEditor",1309023629395
deactivated,workbench,org.eclipse.ui.workbench,3.6.2.M20110210-1200,"",1309023630347
activated,workbench,org.eclipse.ui.workbench,3.6.2.M20110210-1200,"",1309023633685
opened,editor,org.eclipse.jdt.ui,3.6.2.r362_v20110203,"org.eclipse.jdt.ui.CompilationUnitEditor",1309023633763
activated,editor,org.eclipse.jdt.ui,3.6.2.r362_v20110203,"org.eclipse.jdt.ui.CompilationUnitEditor",1309023633873
deactivated,workbench,org.eclipse.ui.workbench,3.6.2.M20110210-1200,"",1309023638241
activated,workbench,org.eclipse.ui.workbench,3.6.2.M20110210-1200,"",1309023641641
opened,editor,org.eclipse.jdt.ui,3.6.2.r362_v20110203,"org.eclipse.jdt.ui.CompilationUnitEditor",1309023641719
activated,editor,org.eclipse.jdt.ui,3.6.2.r362_v20110203,"org.eclipse.jdt.ui.CompilationUnitEditor",1309023641813
activated,editor,org.eclipse.jdt.ui,3.6.2.r362_v20110203,"org.eclipse.jdt.ui.CompilationUnitEditor",1309023644044
closed,editor,org.eclipse.jdt.ui,3.6.2.r362_v20110203,"org.eclipse.jdt.ui.CompilationUnitEditor",1309023644044
deactivated,workbench,org.eclipse.ui.workbench,3.6.2.M20110210-1200,"",1309023645401
activated,workbench,org.eclipse.ui.workbench,3.6.2.M20110210-1200,"",1309023646789
opened,editor,org.eclipse.jdt.ui,3.6.2.r362_v20110203,"org.eclipse.jdt.ui.CompilationUnitEditor",1309023646867
activated,editor,org.eclipse.jdt.ui,3.6.2.r362_v20110203,"org.eclipse.jdt.ui.CompilationUnitEditor",1309023646977
executed,command,org.eclipse.ui,3.6.2.M20110203-1100,"org.eclipse.ui.edit.copy",1309023652327
activated,editor,org.eclipse.jdt.ui,3.6.2.r362_v20110203,"org.eclipse.jdt.ui.CompilationUnitEditor",1309023654652
executed,command,org.eclipse.ui,3.6.2.M20110203-1100,"org.eclipse.ui.edit.paste",1309023657928
executed,command,org.eclipse.ui,3.6.2.M20110203-1100,"org.eclipse.ui.file.save",1309023660720
deactivated,workbench,org.eclipse.ui.workbench,3.6.2.M20110210-1200,"",1309023669441
activated,workbench,org.eclipse.ui.workbench,3.6.2.M20110210-1200,"",1309023756598
activated,editor,org.eclipse.jdt.ui,3.6.2.r362_v20110203,"org.eclipse.jdt.ui.CompilationUnitEditor",1309023762011
executed,command,org.eclipse.ui,3.6.2.M20110203-1100,"org.eclipse.ui.edit.paste",1309023768017
deactivated,workbench,org.eclipse.ui.workbench,3.6.2.M20110210-1200,"",1309023784023
activated,workbench,org.eclipse.ui.workbench,3.6.2.M20110210-1200,"",1309023784194
executed,command,org.eclipse.ui,3.6.2.M20110203-1100,"org.eclipse.ui.file.save",1309023786004
deactivated,workbench,org.eclipse.ui.workbench,3.6.2.M20110210-1200,"",1309023798000
activated,workbench,org.eclipse.ui.workbench,3.6.2.M20110210-1200,"",1309023872677
deactivated,workbench,org.eclipse.ui.workbench,3.6.2.M20110210-1200,"",1309023917262
activated,workbench,org.eclipse.ui.workbench,3.6.2.M20110210-1200,"",1309023917465
executed,command,org.eclipse.ui,3.6.2.M20110203-1100,"org.eclipse.ui.file.save",1309023931505
activated,view,org.eclipse.jdt.ui,3.6.2.r362_v20110203,"org.eclipse.jdt.ui.PackageExplorer",1309023933361
activated,editor,org.eclipse.jdt.ui,3.6.2.r362_v20110203,"org.eclipse.jdt.ui.CompilationUnitEditor",1309023934375
deactivated,workbench,org.eclipse.ui.workbench,3.6.2.M20110210-1200,"",1309023937293
activated,workbench,org.eclipse.ui.workbench,3.6.2.M20110210-1200,"",1309023942113
activated,view,org.eclipse.jdt.ui,3.6.2.r362_v20110203,"org.eclipse.jdt.ui.PackageExplorer",1309023943330
deactivated,workbench,org.eclipse.ui.workbench,3.6.2.M20110210-1200,"",1309023946387
activated,workbench,org.eclipse.ui.workbench,3.6.2.M20110210-1200,"",1309023952113
opened,editor,org.eclipse.jdt.ui,3.6.2.r362_v20110203,"org.eclipse.jdt.ui.CompilationUnitEditor",1309023952222
activated,editor,org.eclipse.jdt.ui,3.6.2.r362_v20110203,"org.eclipse.jdt.ui.CompilationUnitEditor",1309023952331
activated,view,org.eclipse.jdt.ui,3.6.2.r362_v20110203,"org.eclipse.jdt.ui.PackageExplorer",1309023965295
opened,editor,org.eclipse.jdt.ui,3.6.2.r362_v20110203,"org.eclipse.jdt.ui.CompilationUnitEditor",1309023966387
activated,editor,org.eclipse.jdt.ui,3.6.2.r362_v20110203,"org.eclipse.jdt.ui.CompilationUnitEditor",1309023966496
activated,view,org.eclipse.jdt.ui,3.6.2.r362_v20110203,"org.eclipse.jdt.ui.PackageExplorer",1309023972081
opened,editor,org.eclipse.jdt.ui,3.6.2.r362_v20110203,"org.eclipse.jdt.ui.CompilationUnitEditor",1309023972315
activated,editor,org.eclipse.jdt.ui,3.6.2.r362_v20110203,"org.eclipse.jdt.ui.CompilationUnitEditor",1309023972439
executed,command,org.eclipse.ui,3.6.2.M20110203-1100,"org.eclipse.ui.edit.copy",1309023976573
activated,view,org.eclipse.jdt.ui,3.6.2.r362_v20110203,"org.eclipse.jdt.ui.PackageExplorer",1309023977837
activated,editor,org.eclipse.jdt.ui,3.6.2.r362_v20110203,"org.eclipse.jdt.ui.CompilationUnitEditor",1309023978258
executed,command,org.eclipse.ui,3.6.2.M20110203-1100,"org.eclipse.ui.edit.paste",1309023981129
deactivated,workbench,org.eclipse.ui.workbench,3.6.2.M20110210-1200,"",1309023990286
activated,workbench,org.eclipse.ui.workbench,3.6.2.M20110210-1200,"",1309024007477
deactivated,workbench,org.eclipse.ui.workbench,3.6.2.M20110210-1200,"",1309024044792
activated,workbench,org.eclipse.ui.workbench,3.6.2.M20110210-1200,"",1309024048645
deactivated,workbench,org.eclipse.ui.workbench,3.6.2.M20110210-1200,"",1309024051750
activated,workbench,org.eclipse.ui.workbench,3.6.2.M20110210-1200,"",1309024071078
deactivated,workbench,org.eclipse.ui.workbench,3.6.2.M20110210-1200,"",1309024082170
activated,workbench,org.eclipse.ui.workbench,3.6.2.M20110210-1200,"",1309024082341
deactivated,workbench,org.eclipse.ui.workbench,3.6.2.M20110210-1200,"",1309024085134
activated,workbench,org.eclipse.ui.workbench,3.6.2.M20110210-1200,"",1309024085337
deactivated,workbench,org.eclipse.ui.workbench,3.6.2.M20110210-1200,"",1309024088129
activated,workbench,org.eclipse.ui.workbench,3.6.2.M20110210-1200,"",1309024088316
deactivated,workbench,org.eclipse.ui.workbench,3.6.2.M20110210-1200,"",1309024093589
activated,workbench,org.eclipse.ui.workbench,3.6.2.M20110210-1200,"",1309024096101
deactivated,workbench,org.eclipse.ui.workbench,3.6.2.M20110210-1200,"",1309024163539
activated,workbench,org.eclipse.ui.workbench,3.6.2.M20110210-1200,"",1309024163727
executed,command,org.eclipse.ui,3.6.2.M20110203-1100,"org.eclipse.ui.file.save",1309024165692
deactivated,workbench,org.eclipse.ui.workbench,3.6.2.M20110210-1200,"",1309024204458
activated,workbench,org.eclipse.ui.workbench,3.6.2.M20110210-1200,"",1309024227265
activated,editor,org.eclipse.jdt.ui,3.6.2.r362_v20110203,"org.eclipse.jdt.ui.CompilationUnitEditor",1309024235674
activated,editor,org.eclipse.jdt.ui,3.6.2.r362_v20110203,"org.eclipse.jdt.ui.CompilationUnitEditor",1309024246001
activated,editor,org.eclipse.jdt.ui,3.6.2.r362_v20110203,"org.eclipse.jdt.ui.CompilationUnitEditor",1309024265142
activated,editor,org.eclipse.jdt.ui,3.6.2.r362_v20110203,"org.eclipse.jdt.ui.CompilationUnitEditor",1309024269931
deactivated,workbench,org.eclipse.ui.workbench,3.6.2.M20110210-1200,"",1309024273129
activated,workbench,org.eclipse.ui.workbench,3.6.2.M20110210-1200,"",1309024277685
deactivated,workbench,org.eclipse.ui.workbench,3.6.2.M20110210-1200,"",1309024289119
activated,workbench,org.eclipse.ui.workbench,3.6.2.M20110210-1200,"",1309024290851
activated,editor,org.eclipse.jdt.ui,3.6.2.r362_v20110203,"org.eclipse.jdt.ui.CompilationUnitEditor",1309024290913
activated,view,org.eclipse.ui.console,3.5.0.v20100526,"org.eclipse.ui.console.ConsoleView",1309024356870
activated,view,org.eclipse.jdt.ui,3.6.2.r362_v20110203,"org.eclipse.jdt.ui.PackageExplorer",1309024357837
opened,editor,org.eclipse.jdt.ui,3.6.2.r362_v20110203,"org.eclipse.jdt.ui.CompilationUnitEditor",1309024358087
activated,editor,org.eclipse.jdt.ui,3.6.2.r362_v20110203,"org.eclipse.jdt.ui.CompilationUnitEditor",1309024358196
activated,editor,org.eclipse.jdt.ui,3.6.2.r362_v20110203,"org.eclipse.jdt.ui.CompilationUnitEditor",1309024389240
activated,view,org.eclipse.jdt.ui,3.6.2.r362_v20110203,"org.eclipse.jdt.ui.PackageExplorer",1309024396260
activated,editor,org.eclipse.jdt.ui,3.6.2.r362_v20110203,"org.eclipse.jdt.ui.CompilationUnitEditor",1309024396510
deactivated,workbench,org.eclipse.ui.workbench,3.6.2.M20110210-1200,"",1309024406853
activated,workbench,org.eclipse.ui.workbench,3.6.2.M20110210-1200,"",1309024415667
activated,editor,org.eclipse.jdt.ui,3.6.2.r362_v20110203,"org.eclipse.jdt.ui.CompilationUnitEditor",1309024415729
executed,command,org.eclipse.ui,3.6.2.M20110203-1100,"org.eclipse.ui.edit.copy",1309024434652
activated,editor,org.eclipse.jdt.ui,3.6.2.r362_v20110203,"org.eclipse.jdt.ui.CompilationUnitEditor",1309024436883
executed,command,org.eclipse.ui,3.6.2.M20110203-1100,"org.eclipse.ui.edit.paste",1309024441485
deactivated,workbench,org.eclipse.ui.workbench,3.6.2.M20110210-1200,"",1309024479845
activated,workbench,org.eclipse.ui.workbench,3.6.2.M20110210-1200,"",1309024480063
deactivated,workbench,org.eclipse.ui.workbench,3.6.2.M20110210-1200,"",1309024632491
activated,workbench,org.eclipse.ui.workbench,3.6.2.M20110210-1200,"",1309024641071
deactivated,workbench,org.eclipse.ui.workbench,3.6.2.M20110210-1200,"",1309024656936
activated,workbench,org.eclipse.ui.workbench,3.6.2.M20110210-1200,"",1309024657123
deactivated,workbench,org.eclipse.ui.workbench,3.6.2.M20110210-1200,"",1309024659370
activated,workbench,org.eclipse.ui.workbench,3.6.2.M20110210-1200,"",1309024659573
deactivated,workbench,org.eclipse.ui.workbench,3.6.2.M20110210-1200,"",1309024666764
activated,workbench,org.eclipse.ui.workbench,3.6.2.M20110210-1200,"",1309024666951
executed,command,org.eclipse.ui,3.6.2.M20110203-1100,"org.eclipse.ui.edit.copy",1309024759241
executed,command,org.eclipse.ui,3.6.2.M20110203-1100,"org.eclipse.ui.edit.paste",1309024762065
executed,command,org.eclipse.ui,3.6.2.M20110203-1100,"org.eclipse.ui.edit.copy",1309024790737
executed,command,org.eclipse.ui,3.6.2.M20110203-1100,"org.eclipse.ui.edit.paste",1309024800051
executed,command,org.eclipse.ui,3.6.2.M20110203-1100,"org.eclipse.ui.file.save",1309024804091
executed,command,org.eclipse.ui,3.6.2.M20110203-1100,"org.eclipse.ui.file.saveAll",1309024805277
executed,command,org.eclipse.ui,3.6.2.M20110203-1100,"org.eclipse.ui.edit.cut",1309024817523
executed,command,org.eclipse.ui,3.6.2.M20110203-1100,"org.eclipse.ui.edit.paste",1309024820830
deactivated,workbench,org.eclipse.ui.workbench,3.6.2.M20110210-1200,"",1309024826633
activated,workbench,org.eclipse.ui.workbench,3.6.2.M20110210-1200,"",1309024836399
deactivated,workbench,org.eclipse.ui.workbench,3.6.2.M20110210-1200,"",1309024851078
activated,workbench,org.eclipse.ui.workbench,3.6.2.M20110210-1200,"",1309024851265
deactivated,workbench,org.eclipse.ui.workbench,3.6.2.M20110210-1200,"",1309024887863
activated,workbench,org.eclipse.ui.workbench,3.6.2.M20110210-1200,"",1309024888050
deactivated,workbench,org.eclipse.ui.workbench,3.6.2.M20110210-1200,"",1309024891092
activated,workbench,org.eclipse.ui.workbench,3.6.2.M20110210-1200,"",1309024891264
activated,view,org.eclipse.ui.console,3.5.0.v20100526,"org.eclipse.ui.console.ConsoleView",1309024891373
activated,editor,org.eclipse.jdt.ui,3.6.2.r362_v20110203,"org.eclipse.jdt.ui.CompilationUnitEditor",1309024892746
deactivated,workbench,org.eclipse.ui.workbench,3.6.2.M20110210-1200,"",1309024895226
activated,workbench,org.eclipse.ui.workbench,3.6.2.M20110210-1200,"",1309024896287
deactivated,workbench,org.eclipse.ui.workbench,3.6.2.M20110210-1200,"",1309024902293
activated,workbench,org.eclipse.ui.workbench,3.6.2.M20110210-1200,"",1309024902511
executed,command,org.eclipse.ui,3.6.2.M20110203-1100,"org.eclipse.ui.edit.copy",1309024936863
executed,command,org.eclipse.ui,3.6.2.M20110203-1100,"org.eclipse.ui.edit.copy",1309024941979
